pages/HighlightsPage.class
steps/RetrieveBookingSteps.class
com/tui/data/models/homecardswithoutbooking/Action.class
library/DatePickerSelector$1.class
com/tui/data/models/homecardswithoutbooking/HomeCardsWithoutBookings.class
pages/NavigationPage.class
library/GetApplangaData.class
steps/HighlightsSteps.class
com/tui/data/models/homecardswithoutbooking/Card.class
com/tui/data/models/homecardswithoutbooking/Layout.class
steps/NavigationSteps.class
library/GetLegoAPIData.class
pages/RetrieveBookingPage.class
steps/BaseSteps.class
pages/BasePage.class
drivers/Drivers.class
com/tui/data/models/homecardswithoutbooking/Image.class
runner/RunTest.class
library/DatePickerSelector.class
library/ReusableMethods.class
